<?xml version="1.0" standalone="no"?>
<!DOCTYPE svg PUBLIC "-//W3C//DTD SVG 1.1//EN" "http://www.w3.org/Graphics/SVG/1.1/DTD/svg11.dtd" >
<svg xmlns="http://www.w3.org/2000/svg" xmlns:xlink="http://www.w3.org/1999/xlink" version="1.1">
<metadata>
created by FontForge 20160407 at Wed May 25 13:24:05 2016
 By Jimmy Wärting
Copyright (c) 1988, 1990 Adobe Systems Incorporated.  All Rights Reserved.Helvetica is a registered trademark of Linotype AG and/or its subsidiaries.
</metadata>
<defs>
<font id="HelveticaNeueMedium" horiz-adv-x="556" >
  <font-face 
    font-family="HelveticaNeue"
    font-weight="400"
    font-stretch="normal"
    units-per-em="1000"
    panose-1="0 0 4 0 0 0 0 0 0 0"
    ascent="800"
    descent="-200"
    x-height="517"
    cap-height="714"
    bbox="-165 -221 1066 952"
    underline-thickness="50"
    underline-position="-125"
    unicode-range="U+0020-F002"
  />
<missing-glyph horiz-adv-x="500" 
d="M63 0v798h375v-798h-375zM125 63h250v673h-250v-673z" />
    <glyph glyph-name=".notdef" horiz-adv-x="500" 
d="M63 0v798h375v-798h-375zM125 63h250v673h-250v-673z" />
    <glyph glyph-name=".null" horiz-adv-x="0" 
 />
    <glyph glyph-name="nonmarkingreturn" horiz-adv-x="278" 
 />
    <glyph glyph-name="space" unicode=" " horiz-adv-x="278" 
 />
    <glyph glyph-name="exclam" unicode="!" horiz-adv-x="278" 
d="M77 508v206h125v-206l-33 -309h-59zM72 0v125h134v-125h-134z" />
    <glyph glyph-name="quotedbl" unicode="&#x22;" horiz-adv-x="444" 
d="M83 432v282h102v-282h-102zM259 432v282h102v-282h-102z" />
    <glyph glyph-name="numbersign" unicode="#" 
d="M495 285v-75h-95l-30 -210h-80l29 210h-110l-30 -210h-80l29 210h-94v75h105l18 130h-94v75h104l29 210h81l-30 -210h111l29 210h81l-30 -210h86v-75h-96l-18 -130h85zM348 415h-111l-18 -130h111z" />
    <glyph glyph-name="dollar" unicode="$" 
d="M302 306v-233q123 9 123 119q0 51 -38 79q-27 20 -85 35zM17 217h114q-2 -140 128 -144v242q-105 29 -154 67q-73 55 -73 153q0 91 69 146q64 50 158 50v78h43v-78q95 0 155 -48q64 -52 64 -147h-114q-5 105 -105 105v-211q112 -30 164 -69q73 -55 73 -153
q0 -107 -69 -166q-62 -54 -168 -59v-78h-43v78q-111 2 -177 63.5t-65 170.5zM259 441v200q-113 0 -113 -98q0 -74 113 -102z" />
    <glyph glyph-name="percent" unicode="%" horiz-adv-x="1000" 
d="M260 -24l389 748h76l-387 -748h-78zM751 -14q-86 0 -129 59q-38 51 -38 140q0 87 40 140q44 59 127 59t127 -59q40 -53 40 -140q0 -89 -38 -140q-43 -59 -129 -59zM674 185q0 -134 76 -134q78 0 78 134t-78 134q-76 0 -76 -134zM249 316q-86 0 -129 59q-38 51 -38 140
q0 87 40 140q44 59 127 59t127 -59q40 -53 40 -140q0 -89 -38 -140q-43 -59 -129 -59zM172 515q0 -134 76 -134q78 0 78 134t-78 134q-76 0 -76 -134z" />
    <glyph glyph-name="ampersand" unicode="&#x26;" horiz-adv-x="648" 
d="M302 646q-32 0 -54 -22t-22 -57q0 -30 23 -64q21 -27 42 -55q41 28 58 48q26 30 26 68q0 36 -20 59t-53 23zM396 156l-140 174q-67 -41 -71 -45q-39 -34 -39 -89q0 -56 32 -88t83 -32q54 0 90 29q16 12 45 51zM522 0l-65 80q-77 -94 -200 -94q-100 0 -162.5 56.5
t-62.5 155.5q0 123 164 207q-72 91 -72 156q0 76 50.5 123t124.5 47t124 -43q54 -47 54 -128q0 -112 -129 -181l111 -134q16 45 22 96h100q-12 -106 -56 -175l137 -166h-140z" />
    <glyph glyph-name="quotesingle" unicode="'" horiz-adv-x="278" 
d="M88 432v282h102v-282h-102z" />
    <glyph glyph-name="parenleft" unicode="(" horiz-adv-x="278" 
d="M286 -191h-93q-144 229 -144 461q0 239 144 461h93q-123 -220 -123 -461q0 -253 123 -461z" />
    <glyph glyph-name="parenright" unicode=")" horiz-adv-x="278" 
d="M-8 731h93q144 -230 144 -462q0 -240 -144 -460h-93q123 218 123 460q0 253 -123 462z" />
    <glyph glyph-name="asterisk" unicode="*" horiz-adv-x="370" 
d="M130 534l-111 38l22 65l110 -43v120h68v-120l109 43l24 -65l-114 -38l70 -94l-53 -39l-71 98l-68 -98l-56 39z" />
    <glyph glyph-name="plus" unicode="+" horiz-adv-x="600" 
d="M249 304v202h102v-202h201v-102h-201v-202h-102v202h-201v102h201z" />
    <glyph glyph-name="comma" unicode="," horiz-adv-x="278" 
d="M69 0v135h139v-135q0 -61 -37.5 -103.5t-97.5 -54.5v61q32 8 49 35.5t16 61.5h-69z" />
    <glyph glyph-name="hyphen" unicode="-" horiz-adv-x="389" 
d="M49 218v108h291v-108h-291z" />
    <glyph glyph-name="hyphen" unicode="&#x2010;" horiz-adv-x="389" 
d="M49 218v108h291v-108h-291z" />
    <glyph glyph-name="period" unicode="." horiz-adv-x="278" 
d="M69 0v135h139v-135h-139z" />
    <glyph glyph-name="slash" unicode="/" horiz-adv-x="352" 
d="M-22 -17l287 748h109l-287 -748h-109z" />
    <glyph glyph-name="zero" unicode="0" 
d="M278 81q128 0 128 269t-128 269t-128 -269t128 -269zM278 714q136 0 196 -122q46 -92 46 -242t-46 -242q-60 -122 -196 -122t-196 122q-46 92 -46 242t46 242q60 122 196 122z" />
    <glyph glyph-name="one" unicode="1" 
d="M53 494v90q78 -1 132 26q60 31 72 90h93v-700h-125v494h-172z" />
    <glyph glyph-name="two" unicode="2" 
d="M517 102v-102h-478q1 159 154 265q48 32 95 64q54 38 81 72q34 44 35 94q1 48 -22 81q-30 43 -96 43q-115 0 -120 -175h-114q0 120 62 193q65 77 179 77q116 0 177 -74q48 -59 48 -141q0 -127 -156 -236l-116 -78q-57 -44 -70 -83h341z" />
    <glyph glyph-name="three" unicode="3" 
d="M228 325v85q65 -3 106 22q49 28 49 88q0 44 -30.5 71.5t-78.5 27.5q-56 0 -87 -42.5t-29 -100.5h-114q5 105 65 170q64 68 167 68q89 0 151 -47q70 -52 70 -140q0 -115 -99 -150v-2q59 -12 93 -59.5t34 -115.5q0 -96 -74 -156q-70 -58 -174 -58q-118 0 -183 67
q-61 64 -63 177h114q-2 -66 32 -106q35 -43 100 -43q59 0 96.5 33.5t37.5 91.5q0 127 -183 119z" />
    <glyph glyph-name="four" unicode="4" 
d="M522 256v-90h-90v-166h-108v166h-300v113l300 421h108v-444h90zM322 564l-210 -308h212v308h-2z" />
    <glyph glyph-name="five" unicode="5" 
d="M48 317l75 383h362v-102h-277l-36 -178l2 -2q48 53 129 53q102 0 162 -67q57 -64 57 -167q0 -97 -56 -167q-67 -84 -186 -84q-105 0 -171 54q-70 57 -74 159h114q5 -56 39 -87t90 -31q130 0 130 154q0 62 -32 102q-36 44 -101 44q-89 0 -113 -64h-114z" />
    <glyph glyph-name="six" unicode="6" 
d="M285 81q58 0 92 45q31 41 31 101t-32 101.5t-91 41.5q-60 0 -94 -43q-32 -39 -32 -100t32 -101q35 -45 94 -45zM509 523h-114q-4 43 -31 69.5t-71 26.5q-81 0 -116 -85q-21 -51 -29 -155l2 -2q47 83 151 83q102 0 163 -67q58 -65 58 -168t-64.5 -171t-168.5 -68
q-143 0 -205 107q-50 87 -50 259q0 146 58 244q70 118 206 118q85 0 146 -53.5t65 -137.5z" />
    <glyph glyph-name="seven" unicode="7" 
d="M35 598v102h479v-95q-237 -268 -261 -605h-125q11 159 87 321q70 149 183 277h-363z" />
    <glyph glyph-name="eight" unicode="8" 
d="M278 76q58 0 95.5 35t37.5 95q0 57 -37.5 90t-95.5 33t-95.5 -33t-37.5 -90q0 -60 37.5 -95t95.5 -35zM278 -14q-109 0 -178 59.5t-69 160.5q0 65 34.5 110.5t93.5 60.5v1q-99 39 -99 145q0 90 57 140.5t161 50.5t161 -50.5t57 -140.5q0 -106 -99 -145v-1
q59 -15 93.5 -60.5t34.5 -110.5q0 -101 -69 -160.5t-178 -59.5zM278 624q-48 0 -79 -28.5t-31 -78.5q0 -48 30.5 -75.5t79.5 -27.5t79.5 27.5t30.5 75.5q0 50 -31 78.5t-79 28.5z" />
    <glyph glyph-name="nine" unicode="9" 
d="M270 619q-59 0 -92 -43q-30 -39 -30 -100q0 -62 30 -102q33 -45 92 -45q61 0 95 45q32 40 32 102q0 60 -33 101.5t-94 41.5zM47 177h114q4 -43 31 -69.5t71 -26.5q81 0 116 86q21 50 29 154l-2 2q-47 -84 -151 -84q-99 0 -160 64.5t-61 171.5q0 105 64.5 172t176.5 67
q138 0 198 -106q49 -88 49 -260q0 -146 -58 -244q-70 -118 -206 -118q-85 0 -146 53.5t-65 137.5z" />
    <glyph glyph-name="colon" unicode=":" horiz-adv-x="278" 
d="M69 371v135h139v-135h-139zM69 0v135h139v-135h-139z" />
    <glyph glyph-name="semicolon" unicode=";" horiz-adv-x="278" 
d="M69 0v135h139v-135q0 -61 -37.5 -103.5t-97.5 -54.5v61q32 8 49 35.5t16 61.5h-69zM69 371v135h139v-135h-139z" />
    <glyph glyph-name="less" unicode="&#x3c;" horiz-adv-x="600" 
d="M554 94v-102l-508 225v72l508 225v-102l-374 -159z" />
    <glyph glyph-name="equal" unicode="=" horiz-adv-x="600" 
d="M552 405v-102h-504v102h504zM552 203v-102h-504v102h504z" />
    <glyph glyph-name="greater" unicode="&#x3e;" horiz-adv-x="600" 
d="M46 94l374 159l-374 159v102l508 -225v-72l-508 -225v102z" />
    <glyph glyph-name="question" unicode="?" 
d="M163 487h-114q-1 111 64.5 177.5t175.5 66.5q95 0 156.5 -54t61.5 -148q0 -62 -28 -104q-15 -24 -60 -62q-48 -40 -63 -65q-25 -39 -25 -104h-108q0 83 19 128q16 38 59 75q47 41 57 53q24 31 24 75q0 55 -35 86q-29 25 -63 25q-121 0 -121 -149zM208 0v125h134v-125
h-134z" />
    <glyph glyph-name="at" unicode="@" horiz-adv-x="800" 
d="M361 216q56 0 98 62q39 56 39 116q0 35 -23.5 61.5t-55.5 26.5q-58 0 -100 -59q-38 -54 -38 -116q0 -40 22 -65.5t58 -25.5zM615 542l-72 -263q-8 -31 -8 -45q0 -24 18 -24q48 0 88 62q42 66 42 154q0 109 -79 176q-75 64 -188 64q-126 0 -206.5 -86.5t-80.5 -213.5
q0 -144 85 -232q82 -86 211 -86q139 0 225 99h70q-48 -77 -127.5 -120.5t-171.5 -43.5q-157 0 -263 108q-109 110 -109 279q0 150 108.5 255.5t258.5 105.5q137 0 234 -82q101 -85 101 -211q0 -136 -88 -224q-73 -74 -148 -74q-56 0 -59 58h-2q-51 -57 -112 -57
q-62 0 -104 46t-42 111q0 100 60 177q65 82 159 82q77 0 112 -72l18 57h70z" />
    <glyph glyph-name="A" unicode="A" horiz-adv-x="667" 
d="M331 591l-108 -307h218l-107 307h-3zM-7 0l274 714h133l275 -714h-134l-67 189h-285l-67 -189h-129z" />
    <glyph glyph-name="B" unicode="B" horiz-adv-x="704" 
d="M201 325v-223h221q120 0 120 113q0 110 -120 110h-221zM76 0v714h347q99 0 155.5 -45t56.5 -132q0 -108 -102 -152v-2q134 -29 134 -184q0 -89 -62 -141q-69 -58 -201 -58h-328zM201 612v-197h204q46 0 75.5 26t29.5 73q0 98 -105 98h-204z" />
    <glyph glyph-name="C" unicode="C" horiz-adv-x="722" 
d="M683 487h-125q-36 142 -178 142q-107 0 -166 -85q-51 -74 -51 -187t51 -187q59 -85 166 -85q80 0 129 55q45 50 53 132h122q-8 -129 -91.5 -209t-212.5 -80q-156 0 -251 111q-91 105 -91 263q0 159 91 264q95 110 251 110q123 0 206 -64q86 -67 97 -180z" />
    <glyph glyph-name="D" unicode="D" horiz-adv-x="722" 
d="M201 612v-510h123q136 0 193 74q45 60 45 181t-45 181q-57 74 -193 74h-123zM76 0v714h296q157 0 240 -105q75 -94 75 -252t-75 -252q-83 -105 -240 -105h-296z" />
    <glyph glyph-name="E" unicode="E" horiz-adv-x="630" 
d="M76 0v714h514v-108h-389v-187h360v-102h-360v-209h396v-108h-521z" />
    <glyph glyph-name="F" unicode="F" horiz-adv-x="593" 
d="M76 0v714h493v-108h-368v-187h323v-102h-323v-317h-125z" />
    <glyph glyph-name="G" unicode="G" horiz-adv-x="759" 
d="M699 376v-376h-80l-19 84q-49 -56 -98.5 -78.5t-116.5 -22.5q-156 0 -251 111q-91 105 -91 263t91 264q95 110 251 110q122 0 204 -62q88 -65 102 -182h-122q-9 68 -63 106q-50 36 -121 36q-107 0 -166 -85q-51 -74 -51 -187t51 -187q58 -84 166 -85q95 -1 146.5 51.5
t53.5 144.5h-190v95h304z" />
    <glyph glyph-name="H" unicode="H" horiz-adv-x="722" 
d="M73 0v714h125v-284h325v284h125v-714h-125v322h-325v-322h-125z" />
    <glyph glyph-name="I" unicode="I" horiz-adv-x="278" 
d="M76 0v714h125v-714h-125z" />
    <glyph glyph-name="J" unicode="J" horiz-adv-x="537" 
d="M461 714v-484q0 -113 -41 -170q-55 -77 -194 -77q-108 0 -163 66q-50 59 -50 163v38h125v-37q0 -64 21 -94q23 -34 77 -34q58 0 80 36q20 30 20 102v491h125z" />
    <glyph glyph-name="K" unicode="K" horiz-adv-x="685" 
d="M76 0v714h125v-325l318 325h154l-285 -285l305 -429h-156l-234 341l-102 -101v-240h-125z" />
    <glyph glyph-name="L" unicode="L" horiz-adv-x="574" 
d="M76 0v714h125v-606h363v-108h-488z" />
    <glyph glyph-name="M" unicode="M" horiz-adv-x="889" 
d="M74 0v714h176l197 -559h2l192 559h174v-714h-119v551h-2l-198 -551h-103l-198 551h-2v-551h-119z" />
    <glyph glyph-name="N" unicode="N" horiz-adv-x="722" 
d="M71 0v714h132l326 -526h2v526h119v-714h-132l-325 525h-3v-525h-119z" />
    <glyph glyph-name="O" unicode="O" horiz-adv-x="760" 
d="M380 731q156 0 251 -110q91 -106 91 -264t-91 -263q-95 -111 -251 -111t-251 111q-91 105 -91 263t91 264q95 110 251 110zM380 629q-107 0 -166 -85q-51 -74 -51 -187t51 -187q59 -85 166 -85t166 85q51 74 51 187t-51 187q-59 85 -166 85z" />
    <glyph glyph-name="P" unicode="P" horiz-adv-x="667" 
d="M201 612v-236h183q50 0 84 25q41 31 41 93q0 118 -123 118h-185zM76 0v714h315q136 0 198 -77q45 -56 45 -144q0 -87 -45 -142q-62 -77 -198 -77h-190v-274h-125z" />
    <glyph glyph-name="Q" unicode="Q" horiz-adv-x="760" 
d="M460 102l-72 63l60 69l87 -76q62 74 62 199q0 113 -51 187q-59 85 -166 85t-166 -85q-51 -74 -51 -187t51 -187q59 -85 166 -85q45 0 80 17zM621 83l92 -80l-61 -68l-104 91q-76 -43 -168 -43q-156 0 -251 111q-91 105 -91 263t91 264q95 110 251 110t251 -110
q91 -106 91 -264q0 -177 -101 -274z" />
    <glyph glyph-name="R" unicode="R" horiz-adv-x="704" 
d="M201 612v-223h205q122 0 122 114q0 109 -124 109h-203zM76 0v714h341q116 0 176 -50.5t60 -142.5q0 -139 -118 -180v-2q106 -15 106 -151q0 -146 39 -188h-134q-19 31 -19 105q0 103 -28 144q-31 45 -114 45h-184v-294h-125z" />
    <glyph glyph-name="S" unicode="S" horiz-adv-x="648" 
d="M33 238h125q0 -78 53 -118q47 -35 128 -35q77 0 117 34q34 29 34 74q0 66 -59 88q-8 3 -213 59q-158 43 -158 181q0 101 82 159q73 51 179 51q117 0 193 -58q81 -63 81 -170h-125q-8 126 -154 126q-52 0 -87 -19q-44 -25 -44 -74q0 -69 85 -91.5t206 -55.5
q67 -20 105 -74q34 -49 34 -108q0 -112 -89 -172q-77 -52 -195 -52q-130 0 -209 61q-87 67 -89 194z" />
    <glyph glyph-name="T" unicode="T" horiz-adv-x="593" 
d="M8 606v108h578v-108h-227v-606h-125v606h-226z" />
    <glyph glyph-name="U" unicode="U" horiz-adv-x="722" 
d="M68 257v457h125v-416q0 -97 23 -139q37 -68 145 -68t145 68q23 42 23 139v416h125v-457q0 -134 -80 -206q-77 -68 -213 -68t-212 68q-81 72 -81 206z" />
    <glyph glyph-name="V" unicode="V" horiz-adv-x="611" 
d="M233 0l-238 714h130l179 -565h2l183 565h127l-244 -714h-139z" />
    <glyph glyph-name="W" unicode="W" horiz-adv-x="944" 
d="M194 0l-188 714h127l129 -546h2l144 546h128l140 -546h2l133 546h127l-197 -714h-127l-143 546h-2l-146 -546h-129z" />
    <glyph glyph-name="X" unicode="X" horiz-adv-x="648" 
d="M250 370l-236 344h149l162 -252l169 252h140l-236 -344l253 -370h-152l-178 273l-181 -273h-143z" />
    <glyph glyph-name="Y" unicode="Y" horiz-adv-x="648" 
d="M262 0v280l-268 434h145l189 -320l186 320h140l-267 -434v-280h-125z" />
    <glyph glyph-name="Z" unicode="Z" horiz-adv-x="630" 
d="M55 606v108h543v-95l-416 -511h426v-108h-585v102l416 504h-384z" />
    <glyph glyph-name="bracketleft" unicode="[" horiz-adv-x="296" 
d="M72 -191v922h223v-90h-115v-742h115v-90h-223z" />
    <glyph glyph-name="backslash" unicode="\" horiz-adv-x="352" 
d="M87 731l287 -748h-109l-287 748h109z" />
    <glyph glyph-name="bracketright" unicode="]" horiz-adv-x="296" 
d="M224 731v-922h-223v90h115v742h-115v90h223z" />
    <glyph glyph-name="asciicircum" unicode="^" horiz-adv-x="600" 
d="M186 335h-102l180 365h72l180 -365h-102l-114 247z" />
    <glyph glyph-name="underscore" unicode="_" horiz-adv-x="500" 
d="M500 -125h-500v50h500v-50z" />
    <glyph glyph-name="grave" unicode="`" horiz-adv-x="241" 
d="M-29 731h134l91 -143h-83z" />
    <glyph glyph-name="a" unicode="a" 
d="M379 174v85q-22 -14 -64 -21l-76 -10q-93 -16 -93 -86q0 -34 38 -52q29 -14 67 -14q46 0 83 22q45 27 45 76zM493 381v-266q0 -39 27 -39q16 0 28 2v-79q-37 -13 -72 -13q-76 0 -88 63q-64 -63 -179 -63q-75 0 -123 38q-54 41 -54 113q0 86 64 124q39 23 135 37l108 16
q47 14 47 57q0 70 -107 70t-114 -82h-114q10 172 235 172q85 0 141 -34q66 -40 66 -116z" />
    <glyph glyph-name="b" unicode="b" horiz-adv-x="611" 
d="M461 258q0 75 -36 127q-40 56 -107 56q-70 0 -107.5 -49t-37.5 -134q0 -80 39 -131t106 -51q72 0 111 57q32 49 32 125zM63 0v714h114v-264h2q23 37 66 59t88 22q117 0 182 -81q60 -74 60 -194q0 -113 -54 -187q-61 -83 -169 -83q-136 0 -179 85h-2v-71h-108z" />
    <glyph glyph-name="c" unicode="c" 
d="M523 344h-114q-14 97 -118 97q-57 0 -93 -35q-49 -48 -49 -153q0 -73 31 -121q37 -56 106 -56q50 0 82.5 31.5t40.5 86.5h114q-33 -208 -237 -208q-118 0 -186 77q-65 72 -65 190q0 123 64 198q68 80 191 80q95 0 157 -46q68 -50 76 -141z" />
    <glyph glyph-name="d" unicode="d" horiz-adv-x="611" 
d="M149 253q0 -73 34 -122q39 -55 109 -55q71 0 111 58q34 50 34 125q0 85 -38.5 133.5t-104.5 48.5q-74 0 -113 -59q-32 -50 -32 -129zM547 714v-714h-108v70h-2q-43 -84 -160 -84q-118 0 -182 80q-60 74 -60 196q0 132 70 205q61 64 154 64q122 0 172 -81h2v264h114z" />
    <glyph glyph-name="e" unicode="e" 
d="M529 229h-380q0 -65 34 -107q37 -46 105 -46q96 0 126 86h108q-18 -83 -82.5 -129.5t-151.5 -46.5q-119 0 -186 75t-67 197q0 114 67 192q71 81 183 81q109 0 179 -80q67 -75 67 -184q0 -19 -2 -38zM149 304h266q-3 57 -38.5 97t-91.5 40q-58 0 -96 -39t-40 -98z" />
    <glyph glyph-name="f" unicode="f" horiz-adv-x="315" 
d="M9 432v85h85v43q0 90 44 127q33 27 99 27q55 0 80 -7v-89q-22 6 -53 6q-56 0 -56 -54v-53h97v-85h-97v-432h-114v432h-85z" />
    <glyph glyph-name="g" unicode="g" horiz-adv-x="593" 
d="M285 90q70 0 107 57q32 49 32 123q0 73 -32 119q-37 52 -107 52t-106 -58q-30 -48 -30 -122q0 -70 32 -117q37 -54 104 -54zM538 517v-490q0 -232 -254 -232q-90 0 -151 35q-73 42 -80 126h114q16 -76 124 -76q133 0 133 132v79h-2q-51 -91 -155 -91q-117 0 -177 81
q-55 71 -55 191q0 109 62 182q65 77 172 77q111 0 153 -85h2v71h114z" />
    <glyph glyph-name="h" unicode="h" horiz-adv-x="574" 
d="M60 0v714h114v-265h2q22 36 63.5 59t91.5 23q86 0 134.5 -45t48.5 -131v-355h-114v325q0 116 -101 116q-56 0 -90.5 -39t-34.5 -97v-305h-114z" />
    <glyph glyph-name="i" unicode="i" horiz-adv-x="241" 
d="M63 0v517h114v-517h-114zM63 606v108h114v-108h-114z" />
    <glyph glyph-name="j" unicode="j" horiz-adv-x="241" 
d="M63 -39v556h114v-561q0 -161 -148 -161q-21 0 -51 4v90q30 -4 39 -4q29 0 39 19q7 15 7 57zM63 606v108h114v-108h-114z" />
    <glyph glyph-name="k" unicode="k" horiz-adv-x="537" 
d="M63 0v714h114v-406l206 209h140l-198 -190l217 -327h-139l-158 251l-68 -66v-185h-114z" />
    <glyph glyph-name="l" unicode="l" horiz-adv-x="241" 
d="M63 0v714h114v-714h-114z" />
    <glyph glyph-name="m" unicode="m" horiz-adv-x="870" 
d="M60 0v517h108v-72h3q57 86 159 86q111 0 145 -86q62 86 162 86q173 0 173 -174v-357h-114v302q0 73 -14 100q-19 39 -80 39q-110 0 -110 -138v-303h-114v332q0 56 -20.5 82.5t-70.5 26.5q-47 0 -80 -36t-33 -98v-307h-114z" />
    <glyph glyph-name="n" unicode="n" horiz-adv-x="574" 
d="M60 0v517h108v-76l2 -2q55 92 161 92q86 0 134.5 -45t48.5 -131v-355h-114v325q0 116 -101 116q-56 0 -90.5 -39t-34.5 -97v-305h-114z" />
    <glyph glyph-name="o" unicode="o" horiz-adv-x="593" 
d="M297 76q72 0 112 58q35 50 35 125q0 74 -35 124q-40 58 -112 58t-112 -58q-35 -50 -35 -124q0 -75 35 -125q40 -58 112 -58zM297 -14q-122 0 -193 77q-68 74 -68 196q0 121 69.5 196.5t191.5 75.5t193 -77q68 -74 68 -195q0 -122 -68 -196q-71 -77 -193 -77z" />
    <glyph glyph-name="p" unicode="p" horiz-adv-x="611" 
d="M461 258q0 75 -36 127q-40 56 -107 56q-70 0 -107.5 -49t-37.5 -134q0 -80 39 -131t106 -51q72 0 111 57q32 49 32 125zM63 -191v708h108v-70h2q46 84 160 84q117 0 182 -81q60 -74 60 -194q0 -113 -54 -187q-61 -83 -169 -83q-122 0 -173 81h-2v-258h-114z" />
    <glyph glyph-name="q" unicode="q" horiz-adv-x="611" 
d="M149 258q0 -76 33 -125q38 -57 110 -57t110 51q35 47 35 131q0 85 -37.5 134t-107.5 49q-67 0 -107 -56q-36 -52 -36 -127zM547 517v-708h-114v258h-2q-51 -81 -173 -81q-108 0 -169 83q-54 74 -54 187q0 120 60 194q65 81 182 81q114 0 160 -84h2v70h108z" />
    <glyph glyph-name="r" unicode="r" horiz-adv-x="352" 
d="M60 0v517h107v-100h2q10 43 55 78.5t96 35.5q13 0 43 -3v-110q-40 5 -49 5q-61 0 -99 -46q-41 -48 -41 -131v-246h-114z" />
    <glyph glyph-name="s" unicode="s" horiz-adv-x="519" 
d="M32 166h114q8 -90 117 -90q118 0 115 68q-2 48 -90 69q-147 36 -159 42q-86 38 -86 128q0 77 73 116q58 32 143 32q87 0 143 -36q63 -42 73 -123h-119q-13 69 -105 69q-94 0 -94 -53q0 -36 53 -55q10 -4 115 -28q78 -18 115 -44q52 -38 52 -107q0 -85 -75 -130
q-63 -38 -156 -38q-102 0 -162 44q-66 48 -67 136z" />
    <glyph glyph-name="t" unicode="t" horiz-adv-x="333" 
d="M8 432v85h86v155h114v-155h103v-85h-103v-276q0 -40 8 -53q11 -18 47 -18q32 0 48 4v-88q-75 -6 -74 -6q-84 0 -116 34q-27 28 -27 98v305h-86z" />
    <glyph glyph-name="u" unicode="u" horiz-adv-x="574" 
d="M514 517v-517h-112v72h-2q-21 -38 -62.5 -62t-84.5 -24q-193 0 -193 203v328h114v-317q0 -124 99 -124q127 0 127 141v300h114z" />
    <glyph glyph-name="v" unicode="v" horiz-adv-x="519" 
d="M197 0l-188 517h124l131 -397h2l126 397h118l-185 -517h-128z" />
    <glyph glyph-name="w" unicode="w" horiz-adv-x="778" 
d="M173 0l-160 517h121l101 -386h2l97 386h115l93 -386h2l105 386h116l-162 -517h-117l-96 384h-2l-95 -384h-120z" />
    <glyph glyph-name="x" unicode="x" horiz-adv-x="537" 
d="M4 0l195 272l-179 245h138l108 -159l113 159h132l-176 -239l198 -278h-137l-131 191l-127 -191h-134z" />
    <glyph glyph-name="y" unicode="y" horiz-adv-x="519" 
d="M199 2l-196 515h125l135 -386h2l131 386h119l-201 -545q-34 -92 -60 -124q-43 -53 -123 -53q-40 0 -79 6v96q42 -7 54 -7q36 0 55 20q13 14 25 52z" />
    <glyph glyph-name="z" unicode="z" horiz-adv-x="500" 
d="M42 427v90h420v-80l-296 -347h311v-90h-455v80l286 347h-266z" />
    <glyph glyph-name="braceleft" unicode="{" horiz-adv-x="296" 
d="M-4 225v90q31 0 58 15q36 20 36 58v206q0 63 48 104q39 33 80 33h91v-90h-55q-56 0 -56 -70v-195q0 -53 -40 -81q-27 -19 -64 -24v-2q104 -10 104 -111v-189q0 -70 56 -70h55v-90h-91q-41 0 -80 33q-48 41 -48 104v198q0 43 -36 65q-27 16 -58 16z" />
    <glyph glyph-name="bar" unicode="|" horiz-adv-x="222" 
d="M60 -17v748h102v-748h-102z" />
    <glyph glyph-name="braceright" unicode="}" horiz-adv-x="296" 
d="M300 315v-90q-31 0 -57 -15q-37 -20 -37 -58v-206q0 -63 -48 -104q-39 -33 -80 -33h-91v90h55q56 0 56 70v195q0 53 40 81q27 19 64 24v2q-104 10 -104 111v189q0 70 -56 70h-55v90h91q41 0 80 -33q48 -41 48 -104v-198q0 -43 37 -65q26 -16 57 -16z" />
    <glyph glyph-name="asciitilde" unicode="~" horiz-adv-x="600" 
d="M495 338v0l36 -84q-30 -42 -50 -59q-34 -27 -75 -27q-42 0 -102 33q-63 35 -115 35q-49 0 -84 -68l-36 84q45 86 125 86q38 0 111 -32q82 -36 102 -36q26 0 50 22q13 12 38 46z" />
    <glyph glyph-name="exclamdown" unicode="&#xa1;" horiz-adv-x="278" 
d="M202 21v-204h-125v204l33 311h59zM206 531v-125h-134v125h134z" />
    <glyph glyph-name="cent" unicode="&#xa2;" 
d="M268 76v365q-61 -6 -91 -66q-26 -50 -26 -122q0 -67 27 -114q31 -54 90 -63zM268 -104v90q-105 0 -170 79q-61 75 -61 188q0 125 64.5 201.5t166.5 76.5v90h43v-90q85 0 145.5 -51t67.5 -136h-114q-5 43 -32.5 70t-66.5 27v-365q90 15 103 118h114q-38 -208 -217 -208
v-90h-43z" />
    <glyph glyph-name="sterling" unicode="&#xa3;" 
d="M31 319v65h63q-47 58 -47 141q0 90 74 150q68 56 160 56q117 0 183.5 -63t67.5 -184h-114q-7 152 -135 152q-48 0 -78 -30q-33 -33 -33 -87q0 -50 46 -135h147v-65h-123q16 -30 16 -67q0 -89 -101 -164l2 -2q68 27 92 27q30 0 79.5 -17.5t75.5 -17.5q53 0 97 38l51 -77
q-65 -56 -160 -56q-19 0 -49 6q-47 9 -50 9q-66 20 -105 20q-61 0 -101 -34l-53 81q42 28 72 70q36 49 36 92q0 48 -21 92h-92z" />
    <glyph glyph-name="currency" unicode="&#xa4;" 
d="M76 90l-56 56l57 61q-50 56 -50 142q0 95 50 144l-57 61l57 57l57 -56q54 46 146 46q87 0 137 -45l58 57l61 -61l-56 -58q47 -50 47 -143q0 -89 -48 -146l55 -59l-55 -55l-57 58q-52 -50 -143 -50q-93 0 -147 49zM279 201q60 0 100 44t40 106q0 60 -40 104t-99 44
q-62 0 -103.5 -43.5t-41.5 -106.5q0 -62 41.5 -105t102.5 -43z" />
    <glyph glyph-name="yen" unicode="&#xa5;" 
d="M221 0v165h-137v65h137v68h-137v65h98l-187 351h127l156 -320l159 320h124l-188 -351h99v-65h-137v-68h137v-65h-137v-165h-114z" />
    <glyph glyph-name="brokenbar" unicode="&#xa6;" horiz-adv-x="222" 
d="M60 -17v292h102v-292h-102zM60 439v292h102v-292h-102z" />
    <glyph glyph-name="section" unicode="&#xa7;" 
d="M357 310l-166 95q-27 -8 -44 -30t-17 -50q0 -47 55 -78l182 -102q60 26 60 82q0 43 -70 83zM485 542h-108q-2 43 -27 71t-67 28q-32 0 -57 -21t-25 -54q0 -41 52 -77q20 -14 114 -62q79 -40 115 -74q53 -51 53 -115q0 -47 -30.5 -88t-75.5 -56q55 -46 55 -128
q0 -81 -60 -128q-56 -43 -138 -43q-94 0 -152 53q-61 55 -64 152h108q8 -115 105 -115q87 0 87 81q0 48 -54 88q-24 17 -118 66q-83 43 -121 77q-55 51 -55 115q0 103 108 149q-43 44 -43 101q0 76 63 125q57 44 134 44q87 0 143.5 -51t57.5 -138z" />
    <glyph glyph-name="dieresis" unicode="&#xa8;" horiz-adv-x="241" 
d="M150 707h114v-108h-114v108zM92 599h-114v108h114v-108z" />
    <glyph glyph-name="copyright" unicode="&#xa9;" horiz-adv-x="800" 
d="M767 357q0 -165 -107.5 -269.5t-258.5 -104.5q-160 0 -264 106.5t-104 267.5q0 165 110 271q105 103 258 103q151 0 257 -103q109 -106 109 -271zM687 357q0 135 -82.5 222t-203.5 87q-123 0 -205.5 -87t-82.5 -222q0 -131 77 -218q81 -91 211 -91q122 0 204 87t82 222z
M521 285h69q-13 -70 -61.5 -112t-115.5 -42q-95 0 -153.5 64t-58.5 162q0 93 57 154t153 61q70 0 119 -39.5t59 -111.5h-68q-8 39 -38 62.5t-72 23.5q-61 0 -95.5 -42.5t-34.5 -107.5q0 -67 36.5 -114t95.5 -47q44 0 73.5 25t34.5 64z" />
    <glyph glyph-name="ordfeminine" unicode="&#xaa;" horiz-adv-x="380" 
d="M244 491v44q-16 -8 -84 -19q-57 -9 -57 -45q0 -33 56 -33q85 0 85 53zM331 621v-151q0 -23 17 -22q5 0 16 1v-68q-22 -8 -47 -8q-54 0 -62 49q-14 -21 -49.5 -35t-67.5 -14q-50 0 -86 24.5t-36 68.5q0 51 44 75q25 14 91 25q57 10 66 13q27 8 27 25q0 45 -60 45
q-66 0 -70 -42h-85q10 107 160 107q58 0 97 -22q45 -25 45 -71z" />
    <glyph glyph-name="guillemotleft" unicode="&#xab;" horiz-adv-x="463" 
d="M205 93l-155 123v112l155 123v-103l-95 -76l95 -76v-103zM403 93l-155 123v112l155 123v-103l-95 -76l95 -76v-103z" />
    <glyph glyph-name="logicalnot" unicode="&#xac;" horiz-adv-x="600" 
d="M450 108v195h-402v102h504v-297h-102z" />
    <glyph glyph-name="registered" unicode="&#xae;" horiz-adv-x="800" 
d="M327 320v-177h-68v414h157q151 0 151 -119q0 -101 -108 -113l116 -182h-77l-107 177h-64zM327 378h76q47 0 67 10q29 14 29 55q0 56 -90 56h-82v-121zM767 357q0 -165 -107.5 -269.5t-258.5 -104.5q-160 0 -264 106.5t-104 267.5q0 165 110 271q105 103 258 103
q151 0 257 -103q109 -106 109 -271zM687 357q0 135 -82.5 222t-203.5 87q-123 0 -205.5 -87t-82.5 -222q0 -131 77 -218q81 -91 211 -91q122 0 204 87t82 222z" />
    <glyph glyph-name="degree" unicode="&#xb0;" horiz-adv-x="400" 
d="M50 564q0 62 44 106t106 44t106 -44t44 -106t-44 -106t-106 -44t-106 44t-44 106zM106 564q0 -39 27.5 -66.5t66.5 -27.5t66.5 27.5t27.5 66.5t-27.5 66.5t-66.5 27.5t-66.5 -27.5t-27.5 -66.5z" />
    <glyph glyph-name="plusminus" unicode="&#xb1;" horiz-adv-x="600" 
d="M249 381v125h102v-125h201v-102h-201v-125h-102v125h-201v102h201zM48 0v102h504v-102h-504z" />
    <glyph glyph-name="twosuperior" unicode="&#xb2;" horiz-adv-x="360" 
d="M336 343v-70h-315q1 107 100 171q89 57 91 59q46 37 47 79q1 62 -73 62q-69 0 -73 -93h-87q0 76 44 119.5t120 43.5q68 0 110 -30q46 -35 46 -100q0 -75 -102 -141q-38 -24 -75.5 -49t-45.5 -51h213z" />
    <glyph glyph-name="threesuperior" unicode="&#xb3;" horiz-adv-x="360" 
d="M146 475v58q42 -2 69 12q32 16 32 49q0 25 -23 39q-19 11 -46 11q-33 0 -53.5 -21.5t-19.5 -54.5h-80q3 69 44 107.5t110 38.5q62 0 102 -26q46 -31 46 -90q0 -68 -64 -90v-2q38 -7 60 -35.5t22 -69.5q0 -64 -47 -100.5t-118 -36.5q-161 0 -164 155h80q-2 -37 20.5 -61
t63.5 -24q36 0 60.5 19.5t24.5 51.5q0 74 -119 70z" />
    <glyph glyph-name="acute" unicode="&#xb4;" horiz-adv-x="241" 
d="M45 588l90 143h135l-142 -143h-83z" />
    <glyph glyph-name="paragraph" unicode="&#xb6;" horiz-adv-x="600" 
d="M246 -160v504q-96 0 -155.5 51t-59.5 131q0 188 233 188h259v-874h-80v809h-117v-809h-80z" />
    <glyph glyph-name="cedilla" unicode="&#xb8;" horiz-adv-x="241" 
d="M9 -200l18 40q48 -16 65 -16q61 0 61 41q0 18 -14 28t-32 10q-22 0 -39 -10l-22 19l66 88h48l-45 -58v-2q8 3 33 3q33 0 57 -18q28 -21 28 -56q0 -47 -39 -71q-32 -19 -82 -19q-67 0 -103 21z" />
    <glyph glyph-name="onesuperior" unicode="&#xb9;" horiz-adv-x="360" 
d="M36 577v58q121 0 138 70h70v-432h-87v304h-121z" />
    <glyph glyph-name="ordmasculine" unicode="&#xba;" horiz-adv-x="380" 
d="M284 543q1 41 -22 72q-26 34 -69 34t-69 -34q-22 -30 -22 -72t22 -71q26 -34 69 -34q44 0 69 34q21 28 22 71zM371 543q0 -78 -45 -123q-48 -47 -133 -47t-131.5 46t-46.5 124t46.5 124.5t131.5 46.5t133 -47q45 -46 45 -124z" />
    <glyph glyph-name="guillemotright" unicode="&#xbb;" horiz-adv-x="463" 
d="M60 451l155 -123v-112l-155 -123v103l95 76l-95 76v103zM258 451l155 -123v-112l-155 -123v103l95 76l-95 76v103z" />
    <glyph glyph-name="onequarter" unicode="&#xbc;" horiz-adv-x="834" 
d="M719 97v-97h-87v97h-195v81l185 250h97v-256h47v-75h-47zM632 172v158h-2l-117 -158h119zM37 577v58q121 0 138 70h70v-432h-87v304h-121zM141 -24l419 748h78l-418 -748h-79z" />
    <glyph glyph-name="onehalf" unicode="&#xbd;" horiz-adv-x="834" 
d="M137 -24l419 748h78l-418 -748h-79zM36 577v58q121 0 138 70h70v-432h-87v304h-121zM788 70v-70h-315q0 67 37 116q26 33 82 68q79 50 81 52q38 31 38 73q0 31 -20.5 49t-52.5 18q-69 0 -73 -98h-87q0 78 43 123t121 45q68 0 110 -33q46 -36 46 -102q0 -76 -102 -141
q-38 -24 -75 -47q-38 -27 -46 -53h213z" />
    <glyph glyph-name="threequarters" unicode="&#xbe;" horiz-adv-x="834" 
d="M756 97v-97h-87v97h-195v81l183 250h99v-256h47v-75h-47zM669 172v158h-2l-117 -158h119zM196 -24l419 748h78l-418 -748h-79zM146 474v58q42 -2 69 12q32 17 32 50q0 25 -23 39q-19 11 -46 11q-33 0 -53.5 -21.5t-19.5 -54.5h-80q3 69 44 107.5t110 38.5q62 0 102 -26
q46 -31 46 -90q0 -68 -64 -90v-2q38 -7 60 -35.5t22 -69.5q0 -64 -47 -100.5t-118 -36.5q-161 0 -164 155h80q-2 -37 20.5 -61t63.5 -24q36 0 60.5 19.5t24.5 51.5q0 73 -119 69z" />
    <glyph glyph-name="questiondown" unicode="&#xbf;" 
d="M393 39h114q1 -107 -64.5 -173t-175.5 -66q-94 0 -156 53t-62 144q0 62 28 104q15 24 61.5 63t61.5 64q25 39 25 104h108q0 -83 -19 -128q-16 -38 -59 -75q-47 -41 -57 -53q-24 -31 -24 -75q0 -51 36 -82q28 -24 62 -24q60 0 90.5 39t30.5 105zM210 531h134v-125h-134
v125z" />
    <glyph glyph-name="Agrave" unicode="&#xc0;" horiz-adv-x="667" 
d="M331 591l-108 -307h218l-107 307h-3zM-7 0l274 714h133l275 -714h-134l-67 189h-285l-67 -189h-129zM184 928h134l91 -143h-83z" />
    <glyph glyph-name="Aacute" unicode="&#xc1;" horiz-adv-x="667" 
d="M331 591l-108 -307h218l-107 307h-3zM-7 0l274 714h133l275 -714h-134l-67 189h-285l-67 -189h-129zM258 770l90 143h135l-142 -143h-83z" />
    <glyph glyph-name="Acircumflex" unicode="&#xc2;" horiz-adv-x="667" 
d="M331 591l-108 -307h218l-107 307h-3zM-7 0l274 714h133l275 -714h-134l-67 189h-285l-67 -189h-129zM333 875l-70 -90h-92l107 143h111l108 -143h-93z" />
    <glyph glyph-name="Atilde" unicode="&#xc3;" horiz-adv-x="667" 
d="M331 591l-108 -307h218l-107 307h-3zM-7 0l274 714h133l275 -714h-134l-67 189h-285l-67 -189h-129zM454 911v0h56q-18 -115 -111 -115q-23 0 -72.5 18.5t-70.5 18.5q-17 0 -29.5 -13t-12.5 -28h-57q7 44 32 76q30 37 72 37q33 0 79.5 -19t63.5 -19q38 0 50 44z" />
    <glyph glyph-name="Adieresis" unicode="&#xc4;" horiz-adv-x="667" 
d="M331 591l-108 -307h218l-107 307h-3zM-7 0l274 714h133l275 -714h-134l-67 189h-285l-67 -189h-129zM363 904h114v-108h-114v108zM305 796h-114v108h114v-108z" />
    <glyph glyph-name="Aring" unicode="&#xc5;" horiz-adv-x="667" 
d="M331 591l-108 -307h218l-107 307h-3zM-7 0l274 714h133l275 -714h-134l-67 189h-285l-67 -189h-129zM334 746q-41 0 -72 31t-31 72q0 42 31 72.5t72 30.5q42 0 72.5 -30.5t30.5 -72.5q0 -41 -30.5 -72t-72.5 -31zM273 849q0 -24 18.5 -42.5t42.5 -18.5q25 0 43 18.5
t18 42.5q0 25 -18 43t-43 18q-24 0 -42.5 -18t-18.5 -43z" />
    <glyph glyph-name="AE" unicode="&#xc6;" horiz-adv-x="963" 
d="M421 606l-157 -328h193v328h-36zM-7 0l355 714h576v-108h-348v-187h326v-102h-326v-209h354v-108h-473v183h-239l-86 -183h-139z" />
    <glyph glyph-name="Ccedilla" unicode="&#xc7;" horiz-adv-x="722" 
d="M562 272h122q-8 -127 -89.5 -207t-207.5 -81l-32 -42v-2q8 3 33 3q33 0 57 -18q28 -21 28 -56q0 -47 -39 -71q-32 -19 -82 -19q-67 0 -103 21l18 40q48 -16 65 -16q61 0 61 41q0 18 -14 28t-32 10q-22 0 -39 -10l-22 19l55 73q-139 14 -223 122q-80 103 -80 250
q0 159 91 264q95 110 251 110q123 0 206 -64q86 -67 97 -180h-125q-36 142 -178 142q-107 0 -166 -85q-51 -74 -51 -187t51 -187q59 -85 166 -85q80 0 129 55q45 50 53 132z" />
    <glyph glyph-name="Egrave" unicode="&#xc8;" horiz-adv-x="630" 
d="M76 0v714h514v-108h-389v-187h360v-102h-360v-209h396v-108h-521zM166 928h134l91 -143h-83z" />
    <glyph glyph-name="Eacute" unicode="&#xc9;" horiz-adv-x="630" 
d="M76 0v714h514v-108h-389v-187h360v-102h-360v-209h396v-108h-521zM240 785l90 143h135l-142 -143h-83z" />
    <glyph glyph-name="Ecircumflex" unicode="&#xca;" horiz-adv-x="630" 
d="M76 0v714h514v-108h-389v-187h360v-102h-360v-209h396v-108h-521zM315 875l-70 -90h-92l107 143h111l108 -143h-93z" />
    <glyph glyph-name="Edieresis" unicode="&#xcb;" horiz-adv-x="630" 
d="M76 0v714h514v-108h-389v-187h360v-102h-360v-209h396v-108h-521zM345 904h114v-108h-114v108zM287 796h-114v108h114v-108z" />
    <glyph glyph-name="Igrave" unicode="&#xcc;" horiz-adv-x="278" 
d="M76 0v714h125v-714h-125zM-10 928h134l91 -143h-83z" />
    <glyph glyph-name="Iacute" unicode="&#xcd;" horiz-adv-x="278" 
d="M76 0v714h125v-714h-125zM64 780l90 143h135l-142 -143h-83z" />
    <glyph glyph-name="Icircumflex" unicode="&#xce;" horiz-adv-x="278" 
d="M76 0v714h125v-714h-125zM139 875l-70 -90h-92l107 143h111l108 -143h-93z" />
    <glyph glyph-name="Idieresis" unicode="&#xcf;" horiz-adv-x="278" 
d="M76 0v714h125v-714h-125zM169 904h114v-108h-114v108zM111 796h-114v108h114v-108z" />
    <glyph glyph-name="Eth" unicode="&#xd0;" horiz-adv-x="722" 
d="M76 0v317h-67v102h67v295h296q157 0 240 -105q75 -94 75 -252t-75 -252q-83 -105 -240 -105h-296zM201 612v-193h195v-102h-195v-215h123q136 0 193 74q45 60 45 181t-45 181q-57 74 -193 74h-123z" />
    <glyph glyph-name="Ntilde" unicode="&#xd1;" horiz-adv-x="722" 
d="M71 0v714h132l326 -526h2v526h119v-714h-132l-325 525h-3v-525h-119zM482 911v0h56q-18 -115 -111 -115q-23 0 -72.5 18.5t-70.5 18.5q-17 0 -29.5 -13t-12.5 -28h-57q7 44 32 76q30 37 72 37q33 0 79.5 -19t63.5 -19q38 0 50 44z" />
    <glyph glyph-name="Ograve" unicode="&#xd2;" horiz-adv-x="760" 
d="M380 731q156 0 251 -110q91 -106 91 -264t-91 -263q-95 -111 -251 -111t-251 111q-91 105 -91 263t91 264q95 110 251 110zM380 629q-107 0 -166 -85q-51 -74 -51 -187t51 -187q59 -85 166 -85t166 85q51 74 51 187t-51 187q-59 85 -166 85zM231 928h134l91 -143h-83z
" />
    <glyph glyph-name="Oacute" unicode="&#xd3;" horiz-adv-x="760" 
d="M380 731q156 0 251 -110q91 -106 91 -264t-91 -263q-95 -111 -251 -111t-251 111q-91 105 -91 263t91 264q95 110 251 110zM380 629q-107 0 -166 -85q-51 -74 -51 -187t51 -187q59 -85 166 -85t166 85q51 74 51 187t-51 187q-59 85 -166 85zM305 770l90 143h135
l-142 -143h-83z" />
    <glyph glyph-name="Ocircumflex" unicode="&#xd4;" horiz-adv-x="760" 
d="M380 731q156 0 251 -110q91 -106 91 -264t-91 -263q-95 -111 -251 -111t-251 111q-91 105 -91 263t91 264q95 110 251 110zM380 629q-107 0 -166 -85q-51 -74 -51 -187t51 -187q59 -85 166 -85t166 85q51 74 51 187t-51 187q-59 85 -166 85zM380 875l-70 -90h-92l107 143
h111l108 -143h-93z" />
    <glyph glyph-name="Otilde" unicode="&#xd5;" horiz-adv-x="760" 
d="M380 731q156 0 251 -110q91 -106 91 -264t-91 -263q-95 -111 -251 -111t-251 111q-91 105 -91 263t91 264q95 110 251 110zM380 629q-107 0 -166 -85q-51 -74 -51 -187t51 -187q59 -85 166 -85t166 85q51 74 51 187t-51 187q-59 85 -166 85zM501 911v0h56
q-18 -115 -111 -115q-23 0 -72.5 18.5t-70.5 18.5q-17 0 -29.5 -13t-12.5 -28h-57q7 44 32 76q30 37 72 37q33 0 79.5 -19t63.5 -19q38 0 50 44z" />
    <glyph glyph-name="Odieresis" unicode="&#xd6;" horiz-adv-x="760" 
d="M380 731q156 0 251 -110q91 -106 91 -264t-91 -263q-95 -111 -251 -111t-251 111q-91 105 -91 263t91 264q95 110 251 110zM380 629q-107 0 -166 -85q-51 -74 -51 -187t51 -187q59 -85 166 -85t166 85q51 74 51 187t-51 187q-59 85 -166 85zM410 904h114v-108h-114v108z
M352 796h-114v108h114v-108z" />
    <glyph glyph-name="multiply" unicode="&#xd7;" horiz-adv-x="600" 
d="M229 253l-174 174l86 56l158 -159l160 159l86 -56l-175 -174l175 -174l-86 -56l-160 160l-158 -160l-86 56z" />
    <glyph glyph-name="Oslash" unicode="&#xd8;" horiz-adv-x="760" 
d="M199 196l329 370q-55 63 -148 63q-107 0 -166 -85q-51 -74 -51 -187q0 -95 36 -161zM560 518l-328 -370q58 -63 148 -63q107 0 166 85q51 74 51 187q0 94 -37 161zM677 734l43 -36l-79 -89q81 -104 81 -252q0 -158 -91 -263q-95 -111 -251 -111q-134 0 -222 82l-76 -85
l-42 36l79 90q-81 103 -81 251q0 158 91 264q95 110 251 110q133 0 222 -81z" />
    <glyph glyph-name="Ugrave" unicode="&#xd9;" horiz-adv-x="722" 
d="M68 257v457h125v-416q0 -97 23 -139q37 -68 145 -68t145 68q23 42 23 139v416h125v-457q0 -134 -80 -206q-77 -68 -213 -68t-212 68q-81 72 -81 206zM212 928h134l91 -143h-83z" />
    <glyph glyph-name="Uacute" unicode="&#xda;" horiz-adv-x="722" 
d="M68 257v457h125v-416q0 -97 23 -139q37 -68 145 -68t145 68q23 42 23 139v416h125v-457q0 -134 -80 -206q-77 -68 -213 -68t-212 68q-81 72 -81 206zM286 770l90 143h135l-142 -143h-83z" />
    <glyph glyph-name="Ucircumflex" unicode="&#xdb;" horiz-adv-x="722" 
d="M68 257v457h125v-416q0 -97 23 -139q37 -68 145 -68t145 68q23 42 23 139v416h125v-457q0 -134 -80 -206q-77 -68 -213 -68t-212 68q-81 72 -81 206zM361 875l-70 -90h-92l107 143h111l108 -143h-93z" />
    <glyph glyph-name="Udieresis" unicode="&#xdc;" horiz-adv-x="722" 
d="M68 257v457h125v-416q0 -97 23 -139q37 -68 145 -68t145 68q23 42 23 139v416h125v-457q0 -134 -80 -206q-77 -68 -213 -68t-212 68q-81 72 -81 206zM391 904h114v-108h-114v108zM333 796h-114v108h114v-108z" />
    <glyph glyph-name="Yacute" unicode="&#xdd;" horiz-adv-x="648" 
d="M262 0v280l-268 434h145l189 -320l186 320h140l-267 -434v-280h-125zM249 770l90 143h135l-142 -143h-83z" />
    <glyph glyph-name="Thorn" unicode="&#xde;" horiz-adv-x="667" 
d="M76 0v714h125v-108h190q136 0 198 -77q45 -56 45 -144q0 -87 -45 -142q-62 -77 -198 -77h-190v-166h-125zM201 504v-236h183q50 0 84 25q41 31 41 93q0 118 -123 118h-185z" />
    <glyph glyph-name="germandbls" unicode="&#xdf;" horiz-adv-x="574" 
d="M63 0v523q0 96 61 152t158 56q86 0 147 -47q66 -51 66 -133q0 -53 -25 -93q-27 -43 -77 -58v-2q61 -7 99 -59q35 -48 35 -112q0 -105 -62.5 -173t-166.5 -68q-27 0 -56 3v90q15 -3 39 -3q132 0 132 156q0 64 -55 98q-40 25 -115 25v75q67 0 99 26q39 31 39 84
q0 101 -101 101q-103 0 -103 -130v-511h-114z" />
    <glyph glyph-name="agrave" unicode="&#xe0;" 
d="M379 174v85q-22 -14 -64 -21l-76 -10q-93 -16 -93 -86q0 -34 38 -52q29 -14 67 -14q46 0 83 22q45 27 45 76zM493 381v-266q0 -39 27 -39q16 0 28 2v-79q-37 -13 -72 -13q-76 0 -88 63q-64 -63 -179 -63q-75 0 -123 38q-54 41 -54 113q0 86 64 124q39 23 135 37l108 16
q47 14 47 57q0 70 -107 70t-114 -82h-114q10 172 235 172q85 0 141 -34q66 -40 66 -116zM129 731h134l91 -143h-83z" />
    <glyph glyph-name="aacute" unicode="&#xe1;" 
d="M379 174v85q-22 -14 -64 -21l-76 -10q-93 -16 -93 -86q0 -34 38 -52q29 -14 67 -14q46 0 83 22q45 27 45 76zM493 381v-266q0 -39 27 -39q16 0 28 2v-79q-37 -13 -72 -13q-76 0 -88 63q-64 -63 -179 -63q-75 0 -123 38q-54 41 -54 113q0 86 64 124q39 23 135 37l108 16
q47 14 47 57q0 70 -107 70t-114 -82h-114q10 172 235 172q85 0 141 -34q66 -40 66 -116zM203 588l90 143h135l-142 -143h-83z" />
    <glyph glyph-name="acircumflex" unicode="&#xe2;" 
d="M379 174v85q-22 -14 -64 -21l-76 -10q-93 -16 -93 -86q0 -34 38 -52q29 -14 67 -14q46 0 83 22q45 27 45 76zM493 381v-266q0 -39 27 -39q16 0 28 2v-79q-37 -13 -72 -13q-76 0 -88 63q-64 -63 -179 -63q-75 0 -123 38q-54 41 -54 113q0 86 64 124q39 23 135 37l108 16
q47 14 47 57q0 70 -107 70t-114 -82h-114q10 172 235 172q85 0 141 -34q66 -40 66 -116zM278 678l-70 -90h-92l107 143h111l108 -143h-93z" />
    <glyph glyph-name="atilde" unicode="&#xe3;" 
d="M379 174v85q-22 -14 -64 -21l-76 -10q-93 -16 -93 -86q0 -34 38 -52q29 -14 67 -14q46 0 83 22q45 27 45 76zM493 381v-266q0 -39 27 -39q16 0 28 2v-79q-37 -13 -72 -13q-76 0 -88 63q-64 -63 -179 -63q-75 0 -123 38q-54 41 -54 113q0 86 64 124q39 23 135 37l108 16
q47 14 47 57q0 70 -107 70t-114 -82h-114q10 172 235 172q85 0 141 -34q66 -40 66 -116zM399 714v0h56q-18 -115 -111 -115q-23 0 -72.5 18.5t-70.5 18.5q-17 0 -29.5 -13t-12.5 -28h-57q7 44 32 76q30 37 72 37q33 0 79.5 -19t63.5 -19q38 0 50 44z" />
    <glyph glyph-name="adieresis" unicode="&#xe4;" 
d="M379 174v85q-22 -14 -64 -21l-76 -10q-93 -16 -93 -86q0 -34 38 -52q29 -14 67 -14q46 0 83 22q45 27 45 76zM493 381v-266q0 -39 27 -39q16 0 28 2v-79q-37 -13 -72 -13q-76 0 -88 63q-64 -63 -179 -63q-75 0 -123 38q-54 41 -54 113q0 86 64 124q39 23 135 37l108 16
q47 14 47 57q0 70 -107 70t-114 -82h-114q10 172 235 172q85 0 141 -34q66 -40 66 -116zM308 707h114v-108h-114v108zM250 599h-114v108h114v-108z" />
    <glyph glyph-name="aring" unicode="&#xe5;" 
d="M379 174v85q-22 -14 -64 -21l-76 -10q-93 -16 -93 -86q0 -34 38 -52q29 -14 67 -14q46 0 83 22q45 27 45 76zM493 381v-266q0 -39 27 -39q16 0 28 2v-79q-37 -13 -72 -13q-76 0 -88 63q-64 -63 -179 -63q-75 0 -123 38q-54 41 -54 113q0 86 64 124q39 23 135 37l108 16
q47 14 47 57q0 70 -107 70t-114 -82h-114q10 172 235 172q85 0 141 -34q66 -40 66 -116zM279 549q-41 0 -72 31t-31 72q0 42 31 72.5t72 30.5q42 0 72.5 -30.5t30.5 -72.5q0 -41 -30.5 -72t-72.5 -31zM218 652q0 -24 18.5 -42.5t42.5 -18.5q25 0 43 18.5t18 42.5
q0 25 -18 43t-43 18q-24 0 -42.5 -18t-18.5 -43z" />
    <glyph glyph-name="ae" unicode="&#xe6;" horiz-adv-x="889" 
d="M487 304h261q1 62 -34 99.5t-97 37.5q-58 0 -93 -41q-33 -37 -37 -96zM379 180v77q-15 -14 -59 -20q-40 -4 -80 -9q-94 -15 -94 -86q0 -66 104 -66q51 0 88 27q41 29 41 77zM744 163h114q-22 -82 -85 -129.5t-149 -47.5q-136 0 -190 95q-64 -95 -215 -95q-81 0 -132 38
q-55 40 -55 113q0 86 64 124q39 23 135 37q102 15 105 16q44 13 44 57q0 70 -101 70q-107 0 -114 -82h-114q6 92 77 136q59 36 155 36q128 0 175 -70q53 70 164 70q119 0 182 -76q59 -71 59 -194q0 -16 -1 -32h-375q-1 -64 32 -106q36 -47 103 -47q91 0 122 87z" />
    <glyph glyph-name="ccedilla" unicode="&#xe7;" 
d="M409 194h114q-31 -197 -216 -206l-35 -46v-2q8 3 33 3q33 0 57 -18q28 -21 28 -56q0 -47 -39 -71q-32 -19 -82 -19q-67 0 -103 21l18 40q48 -16 65 -16q61 0 61 41q0 18 -14 28t-32 10q-22 0 -39 -10l-22 19l57 76q-107 8 -167 83q-58 71 -58 182q0 123 64 198
q68 80 191 80q95 0 157 -46q68 -50 76 -141h-114q-14 97 -118 97q-57 0 -93 -35q-49 -48 -49 -153q0 -73 31 -121q37 -56 106 -56q50 0 82.5 31.5t40.5 86.5z" />
    <glyph glyph-name="egrave" unicode="&#xe8;" 
d="M529 229h-380q0 -65 34 -107q37 -46 105 -46q96 0 126 86h108q-18 -83 -82.5 -129.5t-151.5 -46.5q-119 0 -186 75t-67 197q0 114 67 192q71 81 183 81q109 0 179 -80q67 -75 67 -184q0 -19 -2 -38zM149 304h266q-3 57 -38.5 97t-91.5 40q-58 0 -96 -39t-40 -98zM129 731
h134l91 -143h-83z" />
    <glyph glyph-name="eacute" unicode="&#xe9;" 
d="M529 229h-380q0 -65 34 -107q37 -46 105 -46q96 0 126 86h108q-18 -83 -82.5 -129.5t-151.5 -46.5q-119 0 -186 75t-67 197q0 114 67 192q71 81 183 81q109 0 179 -80q67 -75 67 -184q0 -19 -2 -38zM149 304h266q-3 57 -38.5 97t-91.5 40q-58 0 -96 -39t-40 -98zM203 588
l90 143h135l-142 -143h-83z" />
    <glyph glyph-name="ecircumflex" unicode="&#xea;" 
d="M529 229h-380q0 -65 34 -107q37 -46 105 -46q96 0 126 86h108q-18 -83 -82.5 -129.5t-151.5 -46.5q-119 0 -186 75t-67 197q0 114 67 192q71 81 183 81q109 0 179 -80q67 -75 67 -184q0 -19 -2 -38zM149 304h266q-3 57 -38.5 97t-91.5 40q-58 0 -96 -39t-40 -98zM278 678
l-70 -90h-92l107 143h111l108 -143h-93z" />
    <glyph glyph-name="edieresis" unicode="&#xeb;" 
d="M529 229h-380q0 -65 34 -107q37 -46 105 -46q96 0 126 86h108q-18 -83 -82.5 -129.5t-151.5 -46.5q-119 0 -186 75t-67 197q0 114 67 192q71 81 183 81q109 0 179 -80q67 -75 67 -184q0 -19 -2 -38zM149 304h266q-3 57 -38.5 97t-91.5 40q-58 0 -96 -39t-40 -98zM308 707
h114v-108h-114v108zM250 599h-114v108h114v-108z" />
    <glyph glyph-name="igrave" unicode="&#xec;" horiz-adv-x="241" 
d="M177 0h-114v517h114v-517zM-29 731h134l91 -143h-83z" />
    <glyph glyph-name="iacute" unicode="&#xed;" horiz-adv-x="241" 
d="M177 0h-114v517h114v-517zM45 588l90 143h135l-142 -143h-83z" />
    <glyph glyph-name="icircumflex" unicode="&#xee;" horiz-adv-x="241" 
d="M177 0h-114v517h114v-517zM120 678l-70 -90h-92l107 143h111l108 -143h-93z" />
    <glyph glyph-name="idieresis" unicode="&#xef;" horiz-adv-x="241" 
d="M177 0h-114v517h114v-517zM150 707h114v-108h-114v108zM92 599h-114v108h114v-108z" />
    <glyph glyph-name="eth" unicode="&#xf0;" horiz-adv-x="593" 
d="M299 416q-143 0 -143 -171q0 -73 32 -119q35 -50 100 -50q66 0 109 52q39 49 39 117q0 71 -32 118q-37 53 -105 53zM194 541l-50 49l96 46q-29 13 -85 34l76 61q55 -18 104 -50l105 50l49 -49l-94 -45q155 -127 155 -328q0 -144 -61 -228q-70 -95 -208 -95
q-112 0 -176 75q-63 72 -63 191q0 103 60 176q63 78 163 78q81 0 143 -44h2q-29 64 -108 131z" />
    <glyph glyph-name="ntilde" unicode="&#xf1;" horiz-adv-x="574" 
d="M60 0v517h108v-76l2 -2q55 92 161 92q86 0 134.5 -45t48.5 -131v-355h-114v325q0 116 -101 116q-56 0 -90.5 -39t-34.5 -97v-305h-114zM408 714v0h56q-18 -115 -111 -115q-23 0 -72.5 18.5t-70.5 18.5q-17 0 -29.5 -13t-12.5 -28h-57q7 44 32 76q30 37 72 37
q33 0 79.5 -19t63.5 -19q38 0 50 44z" />
    <glyph glyph-name="ograve" unicode="&#xf2;" horiz-adv-x="593" 
d="M297 76q72 0 112 58q35 50 35 125q0 74 -35 124q-40 58 -112 58t-112 -58q-35 -50 -35 -124q0 -75 35 -125q40 -58 112 -58zM297 -14q-122 0 -193 77q-68 74 -68 196q0 121 69.5 196.5t191.5 75.5t193 -77q68 -74 68 -195q0 -122 -68 -196q-71 -77 -193 -77zM147 731h134
l91 -143h-83z" />
    <glyph glyph-name="oacute" unicode="&#xf3;" horiz-adv-x="593" 
d="M297 76q72 0 112 58q35 50 35 125q0 74 -35 124q-40 58 -112 58t-112 -58q-35 -50 -35 -124q0 -75 35 -125q40 -58 112 -58zM297 -14q-122 0 -193 77q-68 74 -68 196q0 121 69.5 196.5t191.5 75.5t193 -77q68 -74 68 -195q0 -122 -68 -196q-71 -77 -193 -77zM221 588
l90 143h135l-142 -143h-83z" />
    <glyph glyph-name="ocircumflex" unicode="&#xf4;" horiz-adv-x="593" 
d="M297 76q72 0 112 58q35 50 35 125q0 74 -35 124q-40 58 -112 58t-112 -58q-35 -50 -35 -124q0 -75 35 -125q40 -58 112 -58zM297 -14q-122 0 -193 77q-68 74 -68 196q0 121 69.5 196.5t191.5 75.5t193 -77q68 -74 68 -195q0 -122 -68 -196q-71 -77 -193 -77zM296 678
l-70 -90h-92l107 143h111l108 -143h-93z" />
    <glyph glyph-name="otilde" unicode="&#xf5;" horiz-adv-x="593" 
d="M297 76q72 0 112 58q35 50 35 125q0 74 -35 124q-40 58 -112 58t-112 -58q-35 -50 -35 -124q0 -75 35 -125q40 -58 112 -58zM297 -14q-122 0 -193 77q-68 74 -68 196q0 121 69.5 196.5t191.5 75.5t193 -77q68 -74 68 -195q0 -122 -68 -196q-71 -77 -193 -77zM417 714v0
h56q-18 -115 -111 -115q-23 0 -72.5 18.5t-70.5 18.5q-17 0 -29.5 -13t-12.5 -28h-57q7 44 32 76q30 37 72 37q33 0 79.5 -19t63.5 -19q38 0 50 44z" />
    <glyph glyph-name="odieresis" unicode="&#xf6;" horiz-adv-x="593" 
d="M297 76q72 0 112 58q35 50 35 125q0 74 -35 124q-40 58 -112 58t-112 -58q-35 -50 -35 -124q0 -75 35 -125q40 -58 112 -58zM297 -14q-122 0 -193 77q-68 74 -68 196q0 121 69.5 196.5t191.5 75.5t193 -77q68 -74 68 -195q0 -122 -68 -196q-71 -77 -193 -77zM326 707h114
v-108h-114v108zM268 599h-114v108h114v-108z" />
    <glyph glyph-name="divide" unicode="&#xf7;" horiz-adv-x="600" 
d="M552 202h-504v102h504v-102zM301 387q-29 0 -51 21.5t-22 50.5q0 30 21.5 51t50.5 21t50.5 -21.5t21.5 -50.5q0 -27 -21.5 -49.5t-49.5 -22.5zM301 -25q-29 0 -51 21.5t-22 50.5q0 30 21.5 51t50.5 21t50.5 -21.5t21.5 -50.5q0 -27 -21.5 -49.5t-49.5 -22.5z" />
    <glyph glyph-name="oslash" unicode="&#xf8;" horiz-adv-x="593" 
d="M421 362l-223 -244q39 -42 99 -42q72 0 112 58q35 50 35 125q0 58 -23 103zM64 -28l-32 28l65 72q-61 73 -61 187q0 121 69.5 196.5t191.5 75.5q104 0 170 -55l63 69l32 -28l-65 -71q61 -75 61 -187q0 -122 -68 -196q-71 -77 -193 -77q-102 0 -169 56zM173 155l223 244
q-39 42 -99 42q-72 0 -112 -58q-35 -50 -35 -124q0 -59 23 -104z" />
    <glyph glyph-name="ugrave" unicode="&#xf9;" horiz-adv-x="574" 
d="M514 517v-517h-112v72h-2q-21 -38 -62.5 -62t-84.5 -24q-193 0 -193 203v328h114v-317q0 -124 99 -124q127 0 127 141v300h114zM138 731h134l91 -143h-83z" />
    <glyph glyph-name="uacute" unicode="&#xfa;" horiz-adv-x="574" 
d="M514 517v-517h-112v72h-2q-21 -38 -62.5 -62t-84.5 -24q-193 0 -193 203v328h114v-317q0 -124 99 -124q127 0 127 141v300h114zM212 588l90 143h135l-142 -143h-83z" />
    <glyph glyph-name="ucircumflex" unicode="&#xfb;" horiz-adv-x="574" 
d="M514 517v-517h-112v72h-2q-21 -38 -62.5 -62t-84.5 -24q-193 0 -193 203v328h114v-317q0 -124 99 -124q127 0 127 141v300h114zM287 678l-70 -90h-92l107 143h111l108 -143h-93z" />
    <glyph glyph-name="udieresis" unicode="&#xfc;" horiz-adv-x="574" 
d="M514 517v-517h-112v72h-2q-21 -38 -62.5 -62t-84.5 -24q-193 0 -193 203v328h114v-317q0 -124 99 -124q127 0 127 141v300h114zM317 707h114v-108h-114v108zM259 599h-114v108h114v-108z" />
    <glyph glyph-name="yacute" unicode="&#xfd;" horiz-adv-x="519" 
d="M199 2l-196 515h125l135 -386h2l131 386h119l-201 -545q-34 -92 -60 -124q-43 -53 -123 -53q-40 0 -79 6v96q42 -7 54 -7q36 0 55 20q13 14 25 52zM184 588l90 143h135l-142 -143h-83z" />
    <glyph glyph-name="thorn" unicode="&#xfe;" horiz-adv-x="611" 
d="M63 -191v905h114v-264h2q23 37 66 59t88 22q117 0 182 -81q60 -74 60 -194q0 -113 -54 -187q-61 -83 -169 -83q-123 0 -173 81h-2v-258h-114zM461 258q0 75 -36 127q-40 56 -107 56q-70 0 -107.5 -49t-37.5 -134q0 -80 39 -131t106 -51q72 0 111 57q32 49 32 125z" />
    <glyph glyph-name="ydieresis" unicode="&#xff;" horiz-adv-x="519" 
d="M199 2l-196 515h125l135 -386h2l131 386h119l-201 -545q-34 -92 -60 -124q-43 -53 -123 -53q-40 0 -79 6v96q42 -7 54 -7q36 0 55 20q13 14 25 52zM289 707h114v-108h-114v108zM231 599h-114v108h114v-108z" />
    <glyph glyph-name="dotlessi" unicode="&#x131;" horiz-adv-x="241" 
d="M177 0h-114v517h114v-517z" />
    <glyph glyph-name="Lslash" unicode="&#x141;" horiz-adv-x="574" 
d="M76 317v397h125v-306l200 142v-93l-200 -142v-207h363v-108h-488v227l-76 -54v90z" />
    <glyph glyph-name="lslash" unicode="&#x142;" horiz-adv-x="241" 
d="M63 0v319l-68 -53v71l68 53v324h114v-235l68 54v-72l-68 -54v-407h-114z" />
    <glyph glyph-name="OE" unicode="&#x152;" horiz-adv-x="1093" 
d="M552 219v266q0 60 -42 100q-47 44 -129 44q-106 0 -164 -87q-51 -75 -51 -186t51 -185q58 -86 164 -86q76 0 126 45q45 40 45 89zM671 606v-187h343v-102h-343v-209h381v-108h-495v64q-69 -81 -188 -81q-153 0 -243 111q-85 104 -85 260q0 158 88 264q93 113 248 113
q115 0 180 -74v57h488v-108h-374z" />
    <glyph glyph-name="oe" unicode="&#x153;" horiz-adv-x="907" 
d="M883 229h-378q1 -68 33 -108q36 -45 102 -45q45 0 80 23t43 65h114q-21 -86 -83 -132t-152 -46q-136 0 -185 95q-49 -95 -184 -95q-115 0 -179 82q-59 74 -59 192q0 116 64 191q68 80 183 80q132 0 181 -87q55 87 181 87t187 -91q52 -77 52 -211zM635 441q-56 0 -92 -40
t-38 -97h264q-8 137 -134 137zM281 441q-67 0 -102 -58q-30 -49 -30 -121q0 -186 132 -186t132 186q0 72 -30 121q-35 58 -102 58z" />
    <glyph glyph-name="Scaron" unicode="&#x160;" horiz-adv-x="648" 
d="M33 238h125q0 -78 53 -118q47 -35 128 -35q77 0 117 34q34 29 34 74q0 66 -59 88q-8 3 -213 59q-158 43 -158 181q0 101 82 159q73 51 179 51q117 0 193 -58q81 -63 81 -170h-125q-8 126 -154 126q-52 0 -87 -19q-44 -25 -44 -74q0 -69 85 -91.5t206 -55.5
q67 -20 105 -74q34 -49 34 -108q0 -112 -89 -172q-77 -52 -195 -52q-130 0 -209 61q-87 67 -89 194zM488 928l-108 -143h-111l-107 143h92l70 -89l71 89h93z" />
    <glyph glyph-name="scaron" unicode="&#x161;" horiz-adv-x="519" 
d="M32 166h114q8 -90 117 -90q118 0 115 68q-2 48 -90 69q-147 36 -159 42q-86 38 -86 128q0 77 73 116q58 32 143 32q87 0 143 -36q63 -42 73 -123h-119q-13 69 -105 69q-94 0 -94 -53q0 -36 53 -55q10 -4 115 -28q78 -18 115 -44q52 -38 52 -107q0 -85 -75 -130
q-63 -38 -156 -38q-102 0 -162 44q-66 48 -67 136zM423 731l-108 -143h-111l-107 143h92l70 -89l71 89h93z" />
    <glyph glyph-name="Ydieresis" unicode="&#x178;" horiz-adv-x="648" 
d="M262 0v280l-268 434h145l189 -320l186 320h140l-267 -434v-280h-125zM354 904h114v-108h-114v108zM296 796h-114v108h114v-108z" />
    <glyph glyph-name="Zcaron" unicode="&#x17d;" horiz-adv-x="630" 
d="M55 606v108h543v-95l-416 -511h426v-108h-585v102l416 504h-384zM479 928l-108 -143h-111l-107 143h92l70 -89l71 89h93z" />
    <glyph glyph-name="zcaron" unicode="&#x17e;" horiz-adv-x="500" 
d="M42 427v90h420v-80l-296 -347h311v-90h-455v80l286 347h-266zM414 731l-108 -143h-111l-107 143h92l70 -89l71 89h93z" />
    <glyph glyph-name="florin" unicode="&#x192;" 
d="M116 353l15 85h92l32 168q24 125 176 125q33 0 73 -5l-17 -90q-23 5 -41 5q-41 0 -58 -16t-25 -57l-25 -130h102l-15 -85h-102l-73 -381q-11 -59 -59.5 -100.5t-111.5 -41.5q-34 0 -79 5l15 90q27 -5 48 -5q58 0 69 56l75 377h-91z" />
    <glyph glyph-name="circumflex" unicode="&#x2c6;" horiz-adv-x="241" 
d="M120 678l-70 -90h-92l107 143h111l108 -143h-93z" />
    <glyph glyph-name="caron" unicode="&#x2c7;" horiz-adv-x="241" 
d="M284 731l-108 -143h-111l-107 143h92l70 -89l71 89h93z" />
    <glyph glyph-name="macron" unicode="&#xaf;" horiz-adv-x="241" 
d="M265 619h-288v65h288v-65z" />
    <glyph glyph-name="macron" unicode="&#x2c9;" horiz-adv-x="241" 
d="M265 619h-288v65h288v-65z" />
    <glyph glyph-name="breve" unicode="&#x2d8;" horiz-adv-x="241" 
d="M-41 731h58q15 -76 107 -76q85 0 101 76h57q-7 -69 -51 -105t-115 -36q-145 0 -157 141z" />
    <glyph glyph-name="dotaccent" unicode="&#x2d9;" horiz-adv-x="241" 
d="M178 599h-114v108h114v-108z" />
    <glyph glyph-name="ring" unicode="&#x2da;" horiz-adv-x="241" 
d="M121 549q-41 0 -72 31t-31 72q0 42 31 72.5t72 30.5q42 0 72.5 -30.5t30.5 -72.5q0 -41 -30.5 -72t-72.5 -31zM60 652q0 -24 18.5 -42.5t42.5 -18.5q25 0 43 18.5t18 42.5q0 25 -18 43t-43 18q-24 0 -42.5 -18t-18.5 -43z" />
    <glyph glyph-name="ogonek" unicode="&#x2db;" horiz-adv-x="241" 
d="M162 3h54q-94 -73 -94 -127q0 -20 11.5 -32t27.5 -12q29 0 53 33l40 -8q-21 -75 -105 -75q-32 0 -58 13q-43 23 -43 77q0 63 114 131z" />
    <glyph glyph-name="tilde" unicode="&#x2dc;" horiz-adv-x="241" 
d="M241 714v0h56q-18 -115 -111 -115q-23 0 -72.5 18.5t-70.5 18.5q-17 0 -29.5 -13t-12.5 -28h-57q7 44 32 76q30 37 72 37q33 0 79.5 -19t63.5 -19q38 0 50 44z" />
    <glyph glyph-name="hungarumlaut" unicode="&#x2dd;" horiz-adv-x="241" 
d="M-35 588l90 143h136l-144 -143h-82zM164 588l90 143h136l-144 -143h-82z" />
    <glyph glyph-name="mu" unicode="&#xb5;" horiz-adv-x="574" 
d="M514 517v-517h-112v72h-2q-20 -38 -60 -62t-76 -24q-59 0 -90 36v-213h-114v708h114v-317q0 -124 99 -124q127 0 127 141v300h114z" />
    <glyph glyph-name="mu" unicode="&#x3bc;" horiz-adv-x="574" 
d="M514 517v-517h-112v72h-2q-20 -38 -60 -62t-76 -24q-59 0 -90 36v-213h-114v708h114v-317q0 -124 99 -124q127 0 127 141v300h114z" />
    <glyph glyph-name="endash" unicode="&#x2013;" horiz-adv-x="500" 
d="M0 218v108h500v-108h-500z" />
    <glyph glyph-name="emdash" unicode="&#x2014;" horiz-adv-x="1000" 
d="M0 218v108h1000v-108h-1000z" />
    <glyph glyph-name="quoteleft" unicode="&#x2018;" horiz-adv-x="278" 
d="M202 714v0v-58q-61 -21 -61 -89h61v-135h-125v135q0 54 37 95q33 36 88 52z" />
    <glyph glyph-name="quoteright" unicode="&#x2019;" horiz-adv-x="278" 
d="M77 432v0v58q61 8 61 89h-61v135h125v-135q0 -58 -34 -99t-91 -48z" />
    <glyph glyph-name="quotesinglbase" unicode="&#x201a;" horiz-adv-x="278" 
d="M77 -147v0v58q61 21 61 89h-61v135h125v-135q0 -54 -37 -95q-33 -36 -88 -52z" />
    <glyph glyph-name="quotedblleft" unicode="&#x201c;" horiz-adv-x="444" 
d="M185 714v0v-58q-61 -21 -61 -89h61v-135h-125v135q0 54 37 95q33 36 88 52zM384 714v0v-58q-61 -21 -61 -89h61v-135h-125v135q0 54 37 95q33 36 88 52z" />
    <glyph glyph-name="quotedblright" unicode="&#x201d;" horiz-adv-x="444" 
d="M60 432v0v58q61 21 61 89h-61v135h125v-135q0 -54 -37 -94q-33 -37 -88 -53zM259 432v0v58q61 21 61 89h-61v135h125v-135q0 -54 -37 -94q-33 -37 -88 -53z" />
    <glyph glyph-name="quotedblbase" unicode="&#x201e;" horiz-adv-x="444" 
d="M60 -147v0v58q61 21 61 89h-61v135h125v-135q0 -54 -37 -95q-33 -36 -88 -52zM259 -147v0v58q61 21 61 89h-61v135h125v-135q0 -54 -37 -95q-33 -36 -88 -52z" />
    <glyph glyph-name="dagger" unicode="&#x2020;" 
d="M221 -160v582h-191v95h191v197h114v-197h191v-95h-191v-582h-114z" />
    <glyph glyph-name="daggerdbl" unicode="&#x2021;" 
d="M221 -160v197h-191v95h191v290h-191v95h191v197h114v-197h191v-95h-191v-290h191v-95h-191v-197h-114z" />
    <glyph glyph-name="bullet" unicode="&#x2022;" horiz-adv-x="500" 
d="M72 357q0 74 52 126t126 52t126.5 -52t52.5 -126t-52.5 -126.5t-126.5 -52.5t-126 52.5t-52 126.5z" />
    <glyph glyph-name="ellipsis" unicode="&#x2026;" horiz-adv-x="1000" 
d="M97 0v135h139v-135h-139zM430 0v135h139v-135h-139zM763 0v135h139v-135h-139z" />
    <glyph glyph-name="perthousand" unicode="&#x2030;" horiz-adv-x="1148" 
d="M231 714q74 0 114 -53q35 -48 35 -126q0 -67 -32 -111q-40 -53 -117 -53t-116 53q-33 44 -33 111q0 78 36 126q39 53 113 53zM231 654q-64 0 -64 -122q0 -101 64 -101t64 101q0 122 -64 122zM165 -24l398 748h73l-400 -748h-71zM576 -14q-71 0 -112 49q-37 46 -37 119
q0 76 36 123q39 52 113 52t114 -52q35 -47 35 -123q0 -73 -37 -119q-41 -49 -112 -49zM576 46q64 0 64 105q0 118 -64 118t-64 -118q0 -105 64 -105zM917 -14q-77 0 -116 55q-33 45 -33 113q0 77 36 124q39 51 113 51t114 -51q35 -47 35 -124q0 -68 -32 -113
q-40 -55 -117 -55zM917 46q64 0 64 105q0 118 -64 118t-64 -118q0 -105 64 -105z" />
    <glyph glyph-name="guilsinglleft" unicode="&#x2039;" horiz-adv-x="259" 
d="M205 93l-155 123v112l155 123v-103l-95 -76l95 -76v-103z" />
    <glyph glyph-name="guilsinglright" unicode="&#x203a;" horiz-adv-x="259" 
d="M54 451l155 -123v-112l-155 -123v103l95 76l-95 76v103z" />
    <glyph glyph-name="fraction" unicode="&#x2044;" horiz-adv-x="167" 
d="M-165 -24l419 748h78l-418 -748h-79z" />
    <glyph glyph-name="trademark" unicode="&#x2122;" horiz-adv-x="990" 
d="M391 714v-65h-126v-347h-80v347h-126v65h332zM591 714l113 -292l112 292h115v-412h-75v322h-2l-123 -322h-56l-123 322h-2v-322h-75v412h116z" />
    <glyph glyph-name="minus" unicode="&#xad;" horiz-adv-x="600" 
d="M552 202h-504v102h504v-102z" />
    <glyph glyph-name="minus" unicode="&#x2212;" horiz-adv-x="600" 
d="M552 202h-504v102h504v-102z" />
    <glyph glyph-name="periodcentered" unicode="&#xb7;" horiz-adv-x="278" 
d="M64 302q0 29 23 51.5t52 22.5q30 0 52.5 -22.5t22.5 -51.5q0 -30 -22.5 -53t-52.5 -23t-52.5 23t-22.5 53z" />
    <glyph glyph-name="periodcentered" unicode="&#x2219;" horiz-adv-x="278" 
d="M64 302q0 29 23 51.5t52 22.5q30 0 52.5 -22.5t22.5 -51.5q0 -30 -22.5 -53t-52.5 -23t-52.5 23t-22.5 53z" />
    <glyph glyph-name="fi" unicode="&#xf001;" 
d="M378 0v517h114v-517h-114zM9 432v85h85v43q0 90 44 127q33 27 99 27q55 0 80 -7v-89q-22 6 -53 6q-56 0 -56 -54v-53h97v-85h-97v-432h-114v432h-85zM378 606v108h114v-108h-114z" />
    <glyph glyph-name="fl" unicode="&#xf002;" 
d="M9 432v85h85v43q0 90 44 127q33 27 99 27q55 0 80 -7v-89q-22 6 -53 6q-56 0 -56 -54v-53h97v-85h-97v-432h-114v432h-85zM378 0v714h114v-714h-114z" />
    <glyph glyph-name="glyph231" horiz-adv-x="278" 
 />
  </font>
</defs></svg>
